…
# query db
res <- combined_spatial_join(pts_sf = al_coord,
                      polys_sf = test_db,
                      prefilter_col = "STATEFP", 
                      return_col = "GEOID")

res
#> Simple feature collection with 1568 features and 2 fields
#> Geometry type: POINT
#> Dimension:     XY
#> Bounding box:  xmin: -88.49584 ymin: 30.20223 xmax: -84.90171 ymax: 34.99714
#> Geodetic CRS:  WGS 84
#> # A tibble: 1,568 × 3
#>    STATEFP GEOID                    geometry
#>    <chr>   <chr>                 <POINT [°]>
#>  1 01      010950307022 (-87.51496 31.58037)
#>  2 01      010030111043 (-87.51496 31.58037)
#>  3 01      010119522021 (-86.36208 33.98386)
#>  4 01      010119522012 (-87.92333 32.16309)
#>  5 01      010970025022 (-87.92333 32.16309)
#>  6 01      010830202013 (-87.92333 32.16309)
#>  7 01      010890029231 (-87.92333 32.16309)
#>  8 <NA>    <NA>         (-85.42765 34.43848)
#>  9 <NA>    <NA>         (-85.44814 34.71424)
#> 10 <NA>    <NA>         (-86.77961 30.41867)
#> # ℹ 1,558 more rows
```
…
